xia_chi = {
	slot = 1
	generic = no
	ai = yes
	has_country_shield = yes
	potential = {
		OR = {
			has_reform = wulin
			has_reform = xiaken
			has_reform = indep_xiaken
			has_reform = one_xia
		}
		capital_scope = { region = xianjie_region }
	}
	
	xia_budding_chi = {
		icon = mission_buddhist_monk_praying
		required_missions = { }
		position = 1
		
		trigger = {
			if = {
				limit = { has_dlc = "Cradle of Civilization" }
				army_professionalism = 0.2
			}
			else = {
				army_tradition = 20
			}
		}
		
		effect = {
			if = {
				limit = { has_dlc = "Cradle of Civilization" }
				add_country_modifier = {
					name = xia_budding_chi
					duration = -1
				}
			}
			else = {
				add_country_modifier = {
					name = xia_budding_chi_alt
					duration = -1
				}
			}
		}
	}
	
	xia_flourishing_chi = {
		icon = mission_buddhist_monk_praying
		required_missions = { 
			xia_budding_chi
		}
		position = 2
		
		trigger = {
			if = {
				limit = { has_dlc = "Cradle of Civilization" }
				army_professionalism = 0.4
			}
			else = {
				army_tradition = 30
			}
		}
		
		effect = {
			if = {
				limit = { has_dlc = "Cradle of Civilization" }
				remove_country_modifier = xia_budding_chi
				add_country_modifier = {
					name = xia_flourishing_chi
					duration = -1
				}
			}
			else = {
				remove_country_modifier = xia_budding_chi_alt
				add_country_modifier = {
					name = xia_flourishing_chi_alt
					duration = -1
				}
			}
		}
	}
	
	xia_expansive_chi = {
		icon = mission_buddhist_monk_praying
		required_missions = { 
			xia_flourishing_chi
		}
		position = 3
		
		trigger = {
			if = {
				limit = { has_dlc = "Cradle of Civilization" }
				army_professionalism = 0.6
			}
			else = {
				army_tradition = 40
			}
		}
		
		effect = {
			if = {
				limit = { has_dlc = "Cradle of Civilization" }
				remove_country_modifier = xia_flourishing_chi
				add_country_modifier = {
					name = xia_expansive_chi
					duration = -1
				}
			}
			else = {
				remove_country_modifier = xia_flourishing_chi_alt
				add_country_modifier = {
					name = xia_expansive_chi_alt
					duration = -1
				}
			}
		}
	}
	
	xia_powerful_chi = {
		icon = mission_buddhist_monk_praying
		required_missions = { 
			xia_expansive_chi
		}
		position = 4
		
		trigger = {
			if = {
				limit = { has_dlc = "Cradle of Civilization" }
				army_professionalism = 0.8
			}
			else = {
				army_tradition = 60
			}
		}
		
		effect = {
			if = {
				limit = { has_dlc = "Cradle of Civilization" }
				remove_country_modifier = xia_expansive_chi
				add_country_modifier = {
					name = xia_powerful_chi
					duration = -1
				}
			}
			else = {
				remove_country_modifier = xia_expansive_chi_alt
				add_country_modifier = {
					name = xia_powerful_chi_alt
					duration = -1
				}
			}
		}
	}
	
	xia_ascendant_chi = {
		icon = mission_buddhist_monk_praying
		required_missions = { 
			xia_powerful_chi
		}
		position = 5
		
		trigger = {
			if = {
				limit = { has_dlc = "Cradle of Civilization" }
				army_professionalism = 1
			}
			else = {
				army_tradition = 80
			}
		}
		
		effect = {
			if = {
				limit = { has_dlc = "Cradle of Civilization" }
				remove_country_modifier = xia_powerful_chi
				add_country_modifier = {
					name = xia_ascendant_chi
					duration = -1
				}
			}
			else = {
				remove_country_modifier = xia_powerful_chi_alt
				add_country_modifier = {
					name = xia_ascendant_chi_alt
					duration = -1
				}
			}
		}
	}
}
	
xia_heroes = {
	slot = 2
	generic = no
	ai = yes
	has_country_shield = yes
	potential = {
		OR = {
			has_reform = wulin
			has_reform = xiaken
			has_reform = indep_xiaken
			has_reform = one_xia
		}
		capital_scope = { region = xianjie_region }
	}
	
	xia_patronize_heroes = {
		icon = mission_manchu_warrior
		required_missions = {
			xia_budding_chi
			xia_nascent_legend
		}
		position = 2
		
		trigger = {
			OR = {
				estate_influence = {
					estate = estate_mages
					influence = 25
				}
				estate_influence = {
					estate = estate_adventurers
					influence = 25
				}
			}
		}
		
		effect = {
			country_event = { id = one_xia.11 }		#Event to choose mages or adventurers
		}
	}
	
	xia_provide_gathering_places = {
		icon = mission_asian_city
		required_missions = {
			xia_flourishing_chi
			xia_young_legend
			xia_patronize_heroes
		}
		position = 3
		
		trigger = {
			OR = {
				AND = {
					has_country_modifier = xia_patronizing_sages
					mage_tower = 1
				}
				AND = {
					has_country_modifier = xia_patronizing_wandering_warriors
					num_of_owned_provinces_with = {
						value = 5
						OR = {
							has_building = marketplace
							has_building = trade_depot
							has_building = temple
							has_building = cathedral
						}
					}
				}
			}
		}
		
		effect = {
			if = {
				limit = { has_country_modifier = xia_patronizing_wandering_warriors }
				add_country_modifier = {
					name = xia_inviting_wandering_warriors
					duration = -1
				}
			}
			if = {
				limit = { has_country_modifier = xia_patronizing_sages }
				add_country_modifier = {
					name = xia_inviting_sages
					duration = -1
				}
			}
		}
	}
	
	xia_enlist_renowned_hero = {
		icon = gory_to_the_black_army
		required_missions = {
			xia_expansive_chi
			xia_growing_legend
			xia_provide_gathering_places
		}
		position = 4
		
		trigger = {
			mil_power = 50
			treasury = 250
			total_development = 500
			OR = {
				estate_influence = {
					estate = estate_mages
					influence = 40
				}
				estate_influence = {
					estate = estate_adventurers
					influence = 40
				}
			}
		}
		
		effect = {
			add_mil_power = -50
			add_treasury = -250
			country_event = { id = one_xia.12 }			#Event to choose which Hero general you want to hire
		}
	}
	
	xia_choose_martial_school = {
		icon = mission_japanese_fort
		required_missions = {
			xia_powerful_chi
			xia_compelling_legend
			xia_enlist_renowned_hero
		}
		position = 5
		
		trigger = {
			mil_power = 100
			army_tradition = 50
			mil_tech = 9
			OR = {
				total_development = 600
				army_size = 70
			}
			OR = {
				AND = {
					estate_influence = {
						estate = estate_mages
						influence = 40
					}
					has_estate_privilege = estate_mages_battlemage_academies
				}
				AND = {
					estate_influence = {
						estate = estate_adventurers
						influence = 40
					}
					has_estate_privilege = estate_adventurers_heroes_in_the_army
				}
			}
		}
		
		effect = {
			add_mil_power = -100
			country_event = { id = one_xia.13 }				#Event to choose martial school (leader pip)
		}
	}
	
	xia_mythical_prowess = {
		icon = mission_japanese_samurai
		required_missions = {
			xia_ascendant_chi
			xia_enduring_legend
			xia_choose_martial_school
		}
		position = 6
		
		trigger = {
			prestige = 80
			army_tradition = 75
			custom_trigger_tooltip = {
				tooltip = xia_mythical_prowess_tooltip
				check_variable = {
					which = xiaWarsWon
					value = 50
				}
			}
		}
		
		effect = {
			country_event = { id = one_xia.14 }				#Event to caress your fragile ego and give you crack (5% discipline)
		}
	}
}

xia_legend = {
	slot = 3
	generic = no
	ai = yes
	has_country_shield = yes
	potential = {
		OR = {
			has_reform = wulin
			has_reform = xiaken
			has_reform = indep_xiaken
			has_reform = one_xia
		}
		capital_scope = { region = xianjie_region }
	}
	
	xia_nascent_legend = {
		icon = mission_consulate_of_the_sea
		required_missions = { }
		position = 1
		
		trigger = {
			custom_trigger_tooltip = {
				tooltip = xia_nascent_legend_tooltip
				check_variable = {
					which = xiaWarsWon
					value = 2
				}
			}
		}
		
		effect = {
			add_country_modifier = {
				name = xia_nascent_legend
				duration = 3650
			}
		}
	}
	
	xia_young_legend = {
		icon = mission_consulate_of_the_sea
		required_missions = {
			xia_nascent_legend
		}
		position = 2
		
		trigger = {
			custom_trigger_tooltip = {
				tooltip = xia_young_legend_tooltip
				check_variable = {
					which = xiaWarsWon
					value = 5
				}
			}
		}
		
		effect = {
			remove_country_modifier = xia_nascent_legend
			add_country_modifier = {
				name = xia_young_legend
				duration = 7300
			}
		}
	}
	
	xia_growing_legend = {
		icon = mission_consulate_of_the_sea
		required_missions = {
			xia_young_legend
		}
		position = 3
		
		trigger = {
			custom_trigger_tooltip = {
				tooltip = xia_growing_legend_tooltip
				check_variable = {
					which = xiaWarsWon
					value = 15
				}
			}
		}
		
		effect = {
			remove_country_modifier = xia_young_legend
			add_country_modifier = {
				name = xia_growing_legend
				duration = 7300
			}
		}
	}
	
	xia_compelling_legend = {
		icon = mission_consulate_of_the_sea
		required_missions = {
			xia_growing_legend
		}
		position = 4
		
		trigger = {
			custom_trigger_tooltip = {
				tooltip = xia_compelling_legend_tooltip
				check_variable = {
					which = xiaWarsWon
					value = 25
				}
			}
		}
		
		effect = {
			remove_country_modifier = xia_growing_legend
			add_country_modifier = {
				name = xia_compelling_legend
				duration = -1
			}
		}
	}
	
	xia_enduring_legend = {
		icon = mission_consulate_of_the_sea
		required_missions = {
			xia_compelling_legend
		}
		position = 5
		
		trigger = {
			custom_trigger_tooltip = {
				tooltip = xia_enduring_legend_tooltip
				check_variable = {
					which = xiaWarsWon
					value = 40
				}
			}
			OR = {
				has_won_war_against = {
					who = R62
					max_years_since = 100
				}
				NOT = {
					exists = R62
				}
			}
		}
		
		effect = {
			remove_country_modifier = xia_compelling_legend
			add_country_modifier = {
				name = xia_enduring_legend
				duration = -1
			}
		}
	}
}

xia_consolidation_1 = {
	slot = 4
	generic = no
	ai = yes
	has_country_shield = yes
	potential = {
		OR = {
			has_reform = wulin
			has_reform = xiaken
			has_reform = indep_xiaken
			has_reform = one_xia
		}
		capital_scope = { region = xianjie_region }
	}
	
	xia_fortify_border = {
		icon = mission_great_wall
		required_missions = { }
		position = 1
		
		trigger = {
			any_owned_province = {
				fort_level = 2
			}
		}
		
		effect = {
			add_country_modifier = {
				name = xia_restoring_garrisons
				duration = 3650
			}
		}
	}
	
	xia_restore_calm = {
		icon = mission_rice_field
		required_missions = {
			xia_fortify_border
			xia_rebuild_army
		}
		position = 2
		
		trigger = {
			is_year = 1450
			stability = 1
			is_at_war = no
			adm_power = 50
		}
		
		effect = {
			country_event = { id = one_xia.15 }			#Event to bring peasants back, choose whether to send them back to the fields, train them as soldiers, or both
		}
	}
	
	xia_expand_domain = {
		icon = mission_unite_home_region
		required_missions = {
			xia_restore_calm
		}
		position = 3
		
		trigger = {
			grown_by_development = 50
		}
		
		effect = {
			add_country_modifier = {
				name = xia_growing_bureaucracy
				duration = 3650
			}
		}
	}
	
	xia_learning_centers = {
		icon = mission_fatehpur_sikri
		required_missions = { }
		position = 4
		
		trigger = {
			num_of_owned_provinces_with	= {
				religion = righteous_path
				OR = {
					has_building = temple
					has_building = cathedral
					has_building = university
				}
				value = 25
			}
		}
		
		effect = {
			add_country_modifier = {
				name = xia_learning_centers
				duration = 9125
			}
		}
	}
	
	xia_proclaim_one_xia = {
		icon = mission_plus_ultra
		required_missions = {
			xia_leading_the_xia
		}
		position = 5
		
		trigger = {
			tag = Y99
		}
		
		effect = {
			add_country_modifier = {
				name = xia_united_xia
				duration = 10950
			}
		}
	}
}

xia_consolidation_2 = {
	slot = 5
	generic = no
	ai = yes
	has_country_shield = yes
	potential = {
		OR = {
			has_reform = wulin
			has_reform = xiaken
			has_reform = indep_xiaken
			has_reform = one_xia
		}
		capital_scope = { region = xianjie_region }
	}
	
	xia_rebuild_army = {
		icon = mission_assemble_an_army
		required_missions = { }
		position = 1
		
		trigger = {
			army_size_percentage = 1
		}
		
		effect = {
			add_country_modifier = {
				name = xia_training_recruits
				duration = 3650
			}
		}
	}
	
	xia_regulate_coinage = {
		icon = mission_african_gold
		required_missions = { }
		position = 2
		
		trigger = {
			gold_income	= 15
		}
		
		effect = {
			add_country_modifier = {
				name = xia_coinage_ministry
				duration = 18250
			}
		}
	}
	
	xia_secure_position = {
		icon = feast_of_pheasants
		required_missions = {
			xia_restore_calm
		}
		position = 3
		
		trigger = {
			dip_power = 100
			OR = {
				AND = {
					OR = {
						has_reform = wulin
						has_reform = one_xia
					}
					any_ally = {
						total_development = 100
					}
				}
				AND = {
					OR = {
						has_reform = xiaken
						has_reform = indep_xiaken
					}
					OR = {
						num_of_allies = 3
						total_development = 100
					}
				}
			}
		}
		
		effect = {
			country_event = { id = one_xia.16 }				#Event to choose dip rep or ae impact
		}
	}
	
	xia_leading_the_xia = {
		icon = mission_restore_faith_in_the_throne
		required_missions = {
			xia_secure_position
			xia_expand_domain
		}
		position = 4
		
		trigger = {
			OR = {
				AND = {
					OR = {
						has_reform = wulin
						has_reform = one_xia
					}
					total_development = 150
				}
				AND = {
					OR = {
						has_reform = indep_xiaken
					}
					total_development = 200
				}
			}
		}
		
		effect = {
			xianjie_region = {
				limit = {
					NOT = { is_permanent_claim = ROOT }
					NOT = { is_core = ROOT }
				}
				add_permanent_claim = ROOT
			}
		}
	}
	
	xia_modernization = {
		icon = mission_scholar_officials
		required_missions = { }
		position = 5
		
		trigger = {
			has_institution = printing_press
			years_of_income = 1
		}
		
		effect = {
			add_years_of_income = -1
			add_country_modifier = {
				name = xia_modernization
				duration = 7300
			}
		}
	}
	
}

xia_onexia_1 = {
	slot = 1
	generic = no
	ai = yes
	has_country_shield = yes
	potential = {
		tag = Y99
	}
	
	xia_the_temple_of_the_sword = {
		icon = mission_asian_city
		required_missions = { }
		position = 6
		
		provinces_to_highlight = {
            province_id = 4811
			OR = {
				NOT = { owned_by = ROOT }
				NOT = { is_core = ROOT }
			}
        }
		
		trigger = {
			custom_trigger_tooltip = {
				tooltip = ruler_not_mage_personality
				ruler_has_mage_personality = yes
			}
			NOT = { dynasty = "of the Order of Keepers" }
			4811 = {
				owned_by = ROOT
				is_core = ROOT
			}
		}
		
		effect = {
			country_event = { id = one_xia.50 }		#Event in which Keepers find your soul imbalanced, tell you to cultivate balance
		}
	}
	
	xia_as_a_still_ocean = {
		icon = mission_hands_praying
		required_missions = {
			xia_the_temple_of_the_sword
		}
		position = 7
		
		trigger = {
			OR = {
				has_ruler_modifier = xia_tranquil_soul
				has_country_flag = xia_rejected_balance
			}
		}
		
		effect = {
			country_event = { id = one_xia.52  }			#Still Ocean heir training unlock
		}
	}
	
	xia_a_balanced_soul = {
		icon = mission_rb_conquer_the_highlands
		required_missions = {
			xia_as_a_still_ocean
		}
		position = 8
		
		trigger = {
			NOT = {
				dynasty = "of the Order of Keepers"
			}
			OR = {
				mil_power = 100
				has_ruler_modifier = xia_tranquil_soul
			}
		}
		
		effect = {
			country_event = { id = one_xia.53 }				#Event to either begin the Trials of Balance or raze Jiangshengdian to the ground
		}
	}
	
	xia_expand_mines = {
		icon = mission_rb_prospect_for_coal
		position = 9
		required_missions = { }
		
		provinces_to_highlight = {
            province_id = 4811
			OR = {
				NOT = { has_production_building_trigger = yes }
				NOT = { num_of_times_improved_by_owner = 10 }
			}
        }
		
		trigger = {
			4811 = {
				has_production_building_trigger = yes
				num_of_times_improved_by_owner = 5
			}
			mil_power = 100
		}
		
		effect = {
			add_mil_power = -100
			4811 = {
				add_permanent_province_modifier = {
					name = xia_expanded_mines
					duration = -1
				}
			}
		}
	}
	
	xia_sparkling_market = {
		icon = mission_rb_inland_india
		required_missions = {
			xia_expand_mines
		}
		position = 10
		
		provinces_to_highlight = {
            province_id = 4811
			OR = {
				NOT = { has_trade_building_trigger = yes }
				NOT = { development = 30 }
				NOT = { is_prosperous = yes }
			}
        }
		
		trigger = {
			4811 = {
				has_trade_building_trigger = yes
				development = 30
				is_prosperous = yes
			}
			dip_power = 100
		}
		
		effect = {
			add_dip_power = -100
			4811 = {
				center_of_trade = 1
			}
			4811 = {
				add_permanent_province_modifier = {
					name = xia_sparkling_market
					duration = -1
				}
			}
		}
	}
	
	xia_art_of_school = {
		icon = mission_consulate_of_the_sea
		required_missions = { }
		position = 11
		
		trigger = {
			mission_completed = xia_choose_martial_school
			mil = 6
			adm = 2
			dip = 2
			adm_power = 100
			ruler_age = 50
		}
		
		effect = {
			add_adm_power = -100
			country_event = { id = one_xia.20 }
		}
	}
	
	xia_academy_of_school = {
		icon = mission_japanese_fort
		required_missions = {
			xia_art_of_school
		}
		position = 12
		
		provinces_to_highlight = {
			is_capital_of = ROOT
			NOT = { has_building = university }
		}
		
		trigger = {
			capital_scope = {
				has_building = university
			}
			mil_power = 100
			treasury = 1000
			army_size = 100
		}
		
		effect = {
			add_treasury = -1000
			add_mil_power = -100
			capital_scope = {
				add_province_modifier = {
					name = xia_martial_academy
					duration = -1
				}
			}
		}
	}
	
	xia_mastery_of_school = {
		icon = mission_japanese_samurai
		required_missions = {
			xia_academy_of_school
		}
		position = 13
		
		trigger = {
			OR = {
				AND = {
					estate_influence = {
						estate = estate_mages
						influence = 50
					}
					has_estate_privilege = estate_mages_battlemage_academies
				}
				AND = {
					estate_influence = {
						estate = estate_adventurers
						influence = 50
					}
					has_estate_privilege = estate_adventurers_heroes_in_the_army
				}
			}
			army_tradition = 80
		}
		
		effect = {
			country_event = { id = one_xia.21 }
		}
	}
	
	xia_immortal_heroes = {
		icon = mission_subdue_rajputana
		required_missions = {
			xia_proclaim_xianxia
		}
		position = 15
		
		trigger = {
			has_global_modifier_value = {
				which = infantry_power
				value = 0.3
			}
			has_global_modifier_value = {
				which = discipline
				value = 0.15
			}
			army_professionalism = 1
		}
		
		effect = {
			add_country_modifier = {
				name = xia_immortal_heroes
				duration = 9125
			}
		}
	}
	
	xia_invincible_corps = {
		icon = mission_assemble_an_army
		required_missions = {
			xia_immortal_heroes
		}
		position = 16
		
		trigger = {
			custom_trigger_tooltip = {
				tooltip = xia_invincible_corps_tooltip
				check_variable = {
					which = xiaWarsWon
					value = 75
				}
			}
		}
		
		effect = {
			add_country_modifier = {
				name = xia_invincible_corps
				duration = 9125
			}
		}
	}
	
	xia_elephant_lords = {
		icon = mission_conquer_siam
		required_missions = {
			xia_invincible_corps
			xia_crossing_the_kharunyana
		}
		position = 19
		
		provinces_to_highlight = {
			superregion = rahen_superregion
			trade_goods = ivory
			OR = {
				NOT = { religion = righteous_path }
				NOT = { owned_by = ROOT }
				NOT = { is_core = ROOT }
			}
		}
		
		trigger = {
			num_of_owned_provinces_with	= {
				value = 4
				superregion = rahen_superregion
				trade_goods = ivory
				religion = righteous_path
				owned_by = ROOT
				is_core = ROOT
			}
		}
		
		effect = {
			add_country_modifier = {
				name = xia_elephant_lord_auxiliaries
				duration = 18250
			}
		}
	}
}

xia_onexia_2 = {
	slot = 2
	generic = no
	ai = yes
	has_country_shield = yes
	potential = {
		tag = Y99
	}
	
	xia_throw_back_monsters = {
		icon = mission_rb_unite_the_clans
		required_missions = {
			xia_send_emissaries
		}
		position = 7
		
		provinces_to_highlight = {
			area = yodhilakra_area
			OR = {
				NOT = { owned_by = ROOT }
				NOT = { is_core = ROOT }
			}
		}
		
		trigger = {
			yodhilakra_area = {
				type = all
				owned_by = ROOT
				is_core = ROOT
			}
		}
		
		effect = {
			add_country_modifier = {
				name = xia_beat_command
				duration = 3650
			}
			sir_area = {
				limit = {
					NOT = { is_core = ROOT }
					NOT = { owned_by = ROOT }
					NOT = { is_permanent_claim = ROOT }
				}
				add_permanent_claim = ROOT
			}
			pharata_area = {
				limit = {
					NOT = { is_core = ROOT }
					NOT = { owned_by = ROOT }
					NOT = { is_permanent_claim = ROOT }
				}
				add_permanent_claim = ROOT
			}
			4631 = { add_permanent_claim = ROOT }
		}
	}
	
	xia_secure_northern_border = {
		icon = mission_great_wall
		required_missions = {
			xia_throw_back_monsters
		}
		position = 8
		
		provinces_to_highlight = {
			OR = {
				area = sir_area
				area = pharata_area
				province_id = 4631
			}
			OR = {
				NOT = { owned_by = ROOT }
				NOT = { is_core = ROOT }
			}
		}
		
		trigger = {
			pharata_area = {
				type = all
				owned_by = ROOT
				is_core = ROOT
			}
			sir_area = {
				type = all
				owned_by = ROOT
				is_core = ROOT
			}
			4631 = {
				owned_by = ROOT
				is_core = ROOT
			}
		}
		
		effect = {
			unbeksu_area = {
				limit = {
					NOT = { is_core = ROOT }
					NOT = { owned_by = ROOT }
					NOT = { is_permanent_claim = ROOT }
				}
				add_permanent_claim = ROOT
			}
			moryokang_area = {
				limit = {
					NOT = { is_core = ROOT }
					NOT = { owned_by = ROOT }
					NOT = { is_permanent_claim = ROOT }
				}
				add_permanent_claim = ROOT
			}
			mogutian_area = {
				limit = {
					NOT = { is_core = ROOT }
					NOT = { owned_by = ROOT }
					NOT = { is_permanent_claim = ROOT }
				}
				add_permanent_claim = ROOT
			}
		}
	}
	
	xia_march_against_demons = {
		icon = mission_manchu_warrior
		required_missions = {
			xia_secure_northern_border
		}
		position = 9
		
		provinces_to_highlight = {
			OR = {
				area = unbeksu_area
				area = moryokang_area
				area = mogutian_area
			}
			OR = {
				NOT = { owned_by = ROOT }
				NOT = { is_core = ROOT }
			}
		}
		
		trigger = {
			unbeksu_area = {
				type = all
				owned_by = ROOT
				is_core = ROOT
			}
			moryokang_area = {
				type = all
				owned_by = ROOT
				is_core = ROOT
			}
			mogutian_area = {
				type = all
				owned_by = ROOT
				is_core = ROOT
			}
		}
		
		effect = {
			demon_hills_region = {
				limit = {
					NOT = { is_core = ROOT }
					NOT = { owned_by = ROOT }
					NOT = { is_permanent_claim = ROOT }
				}
				add_permanent_claim = ROOT
			}
		}
	}
	
	xia_ransack_demonic_monasteries = {
		icon = mission_kanbawzathadi_palace
		required_missions = {
			xia_march_against_demons
		}
		position = 10
		
		provinces_to_highlight = {
			region = demon_hills_region
			OR = {
				NOT = { owned_by = ROOT }
				NOT = { is_core = ROOT }
			}
		}
		
		trigger = {
			mil_power = 100
			demon_hills_region = {
				type = all
				owned_by = ROOT
				is_core = ROOT
				is_city = yes
				type = all
			}
		}
		
		effect = {
			add_mil_power = -100
			5430 = {
				add_base_tax = -2
				add_base_production = -2
				add_base_manpower = -2
			}
			4831 = {
				add_base_tax = -2
				add_base_production = -2
				add_base_manpower = -2
			}
			4829 = {
				add_base_tax = -2
				add_base_production = -2
				add_base_manpower = -2
			}
			4828 = {
				add_base_tax = -2
				add_base_production = -2
				add_base_manpower = -2
			}
			jiezhong_area = {
				add_base_tax = 2
				add_base_production = 2
			}
		}
	}
	
	xia_secret_of_korashi = {
		icon = gory_to_the_black_army
		required_missions = {
			xia_sparkling_market
			xia_ransack_demonic_monasteries
			
		}
		position = 11
		
		trigger = {
			adm_power = 100
		}
		
		effect = {
			country_event = { id = one_xia.60 }				#Event to begin transcribing the secrets of the oni
		}
	}
	
	xia_humble_ultimatum = {
		icon = mission_chinese_general_riding
		required_missions = {
			xia_righteous_liberators
		}
		position = 12
		
		provinces_to_highlight = {
			owned_by = Y05
		}
		
		trigger = {
			OR = {
				AND = {
					adm_power = 100
					dip_power = 100
					mil_power = 100
					any_neighbor_country = {
						tag = Y05
					}
				}
				NOT = {
					exists = Y05
				}
				Y05 = {
					is_subject_of = ROOT
				}
			}
		}
		
		effect = {
			if = {
				limit = {
					NOT = {
						exists = Y05
					}
				}
				add_prestige = 10
			}
			else = {
				country_event = { id = one_xia.23 }
				custom_tooltip = xia_humble_ultimatum_tooltip
			}
		}
	}
	
	xia_eve_of_revolution = {
		icon = mission_weather_the_troubles
		required_missions = {
			xia_humble_ultimatum
		}
		position = 13
		
		trigger = {
			any_known_country = {
				coalition_target = ROOT
			}
		}
		
		effect = {
			add_country_modifier = {
				name = xia_revolution_eve
				duration = 3650
			}
		}
	}
	
	xia_barbarians_to_the_north = {
		icon = mission_non-western_cavalry_raid
		required_missions = {
			xia_proclaim_xianxia
		}
		position = 15
		
		trigger = {
			army_strength = {
				who = Y91
				value = 5
			}
		}
		
		effect = {
			shuvuushudi_region = {
				limit = {
					NOT = { is_core = ROOT }
					NOT = { owned_by = ROOT }
					NOT = { is_permanent_claim = ROOT }
				}
				add_permanent_claim = ROOT
			}
		}
	}
	
	xia_civilizing_the_savages = {
		icon = mission_extent_yasak_to_the_east
		required_missions = {
			xia_barbarians_to_the_north
		}
		position = 16
		
		provinces_to_highlight = {
			region = shuvuushudi_region
			OR = {
				NOT = { owned_by = ROOT }
				NOT = { is_core = ROOT }
				NOT = { religion = righteous_path }
			}
		}
		
		trigger = {
			shuvuushudi_region = {
				type = all
				owned_by = ROOT
				is_core = ROOT
				religion = righteous_path
			}
		}
		
		effect = {
			shuvuushudi_region = {
				add_nationalism = -5
			}
			odheongu_region = {
				limit = {
					NOT = { is_core = ROOT }
					NOT = { owned_by = ROOT }
					NOT = { is_permanent_claim = ROOT }
				}
				add_permanent_claim = ROOT
			}
		}
	}
	
	xia_redeeming_the_wayward = {
		icon = mission_hands_praying
		required_missions = {
			xia_civilizing_the_savages
		}
		position = 17
		
		provinces_to_highlight = {
			region = odheongu_region
			OR = {
				NOT = { owned_by = ROOT }
				NOT = { is_core = ROOT }
				NOT = { religion = righteous_path }
			}
		}
		
		trigger = {
			odheongu_region = {
				type = all
				owned_by = ROOT
				is_core = ROOT
				religion = righteous_path
			}
		}
		
		effect = {
			odheongu_region = {
				add_nationalism = -5
			}
		}
	}
	
	xia_integrating_harimari = {
		icon = mission_conquer_bengal_dlh
		required_missions = {
			xia_overthrow_raja
		}
		position = 20
		
		provinces_to_highlight = {
			superregion = rahen_superregion
			culture = royal_harimari
			OR = {
				NOT = { owned_by = ROOT }
				NOT = { religion = righteous_path }
			}
		}
		
		trigger = {
			num_of_owned_provinces_with	= {
				value = 20
				culture = royal_harimari
				religion = righteous_path
			}
			accepted_culture = royal_harimari
		}
		
		effect = {
			add_country_modifier = {
				name = xia_harimari_administrators
				duration = 36500
			}
		}
	}
}
	
xia_onexia_3 = {
	slot = 3
	generic = no
	ai = yes
	has_country_shield = yes
	potential = {
		tag = Y99
	}
	
	xia_send_emissaries = {
		icon = mission_unite_home_region
		required_missions = {
			xia_proclaim_one_xia
		}
		position = 6
		
		trigger = {
			dip_power = 100
		}
		
		effect = {
			add_dip_power = -100
			bianyuan_area = {
				limit = {
					NOT = { is_core = ROOT }
					NOT = { owned_by = ROOT }
					NOT = { is_permanent_claim = ROOT }
				}
				add_permanent_claim = ROOT
			}
			jyutsai_area = {
				limit = {
					NOT = { is_core = ROOT }
					NOT = { owned_by = ROOT }
					NOT = { is_permanent_claim = ROOT }
				}
				add_permanent_claim = ROOT
			}
		}
	}
	
	xia_overthrow_dragon = {
		icon = mission_impaled_soldies
		required_missions = {
			xia_send_emissaries
		}
		position = 7
		
		provinces_to_highlight = {
			OR = {
				area = tietyuan_area
				area = bianyuan_area
				area = jyutsai_area
			}
			OR = {
				NOT = { owned_by = ROOT }
				NOT = { is_core = ROOT }
			}
		}
		
		trigger = {
			tietyuan_area = {
				type = all
				owned_by = ROOT
				is_core = ROOT
			}
			bianyuan_area = {
				type = all
				owned_by = ROOT
				is_core = ROOT
			}
			jyutsai_area = {
				type = all
				owned_by = ROOT
				is_core = ROOT
			}
		}
		
		effect = {
			bianfang_area = {
				limit = {
					NOT = { is_core = ROOT }
					NOT = { owned_by = ROOT }
					NOT = { is_permanent_claim = ROOT }
				}
				add_permanent_claim = ROOT
			}
			tianszi_area = {
				limit = {
					NOT = { is_core = ROOT }
					NOT = { owned_by = ROOT }
					NOT = { is_permanent_claim = ROOT }
				}
				add_permanent_claim = ROOT
			}
			lamzung_area = {
				limit = {
					NOT = { is_core = ROOT }
					NOT = { owned_by = ROOT }
					NOT = { is_permanent_claim = ROOT }
				}
				add_permanent_claim = ROOT
			}
		}
	}
	
	xia_up_the_yan = {
		icon = mission_sea_battles
		required_missions = {
			xia_overthrow_dragon
		}
		position = 8 

		provinces_to_highlight = {
			region = upper_yanshen_region
			NOT = { owned_by = ROOT }
		}
		
		trigger = {
			num_of_owned_provinces_with	= {
				value = 15
				region = upper_yanshen_region
			}
		}
		
		effect = {
			jiangszun_area = {
				limit = {
					NOT = { is_core = ROOT }
					NOT = { owned_by = ROOT }
					NOT = { is_permanent_claim = ROOT }
				}
				add_permanent_claim = ROOT
			}
			jinqiu_area = {
				limit = {
					NOT = { is_core = ROOT }
					NOT = { owned_by = ROOT }
					NOT = { is_permanent_claim = ROOT }
				}
				add_permanent_claim = ROOT
			}
			4849 = { add_permanent_claim = ROOT }
			4851 = { add_permanent_claim = ROOT }
			4852 = { add_permanent_claim = ROOT }
			4975 = { add_permanent_claim = ROOT }
		}
	}
	
	xia_crush_sinister_sects = {
		icon = mission_impaled_soldies
		required_missions = {
			xia_up_the_yan
		}
		position = 9
		
		provinces_to_highlight = {
			OR = {
				area = jinqiu_area
				area = jiangszun_area
				province_id = 4849
				province_id = 4851
				province_id = 4852
				province_id = 4975
			}
			OR = {
				NOT = { owned_by = ROOT }
				NOT = { is_core = ROOT }
			}
		}
		
		trigger = {
			jiangszun_area = {
				type = all
				owned_by = ROOT
				is_core = ROOT
			}
			jinqiu_area = {
				type = all
				owned_by = ROOT
				is_core = ROOT
			}
			4852 = {
				owned_by = ROOT
				is_core = ROOT
			}
			4851 = {
				owned_by = ROOT
				is_core = ROOT
			}
			4849 = {
				owned_by = ROOT
				is_core = ROOT
			}
			4975 = {
				owned_by = ROOT
				is_core = ROOT
			}
		}
		
		effect = {
			add_country_modifier = {
				name = xia_purging_evil
				duration = 5475
			}
		}
	}
	
	xia_triumph_over_devilry = {
		icon = mission_subdue_rajputana
		required_missions = {
			xia_crush_sinister_sects
			xia_march_against_demons
		}
		position = 10
		
		provinces_to_highlight = {
			religion = lefthand_path
		}
		
		trigger = {
			NOT = {
				any_province = {
					religion = lefthand_path
				}
			}
		}
		
		effect = {
			add_country_modifier = {
				name = xia_triumphed_over_devilry
				duration = 18250
			}
		}
	}
	
	xia_righteous_liberators = {
		icon = mission_plus_ultra
		required_missions = {
			xia_triumph_over_devilry
		}
		position = 11
		
		trigger = {
			religious_unity	= 0.95
			total_development = 1000
			dip_power = 200
		}
		
		effect = {
			add_dip_power = -200
			add_country_modifier = {
				name = xia_righteous_liberators_1
				duration = -1
			}
			custom_tooltip = xia_righteous_liberators_1_tooltip
		}
	}
	
	xia_no_south_kings = {
		icon = mission_hills_of_gondwana
		required_missions = {
			xia_righteous_liberators
		}
		position = 12
		
		provinces_to_highlight = {
			OR = {
				area = wanglam_area
				area = hungngon_area
				area = xiyun_area
				area = gungi_area
				area = luoyip_area
				area = iongsim_area
				area = hongnguan_area
			}
			OR = {
				NOT = { owned_by = ROOT }
				NOT = { is_core = ROOT }
			}
		}
		
		trigger = {
			wanglam_area = {
				type = all
				owned_by = ROOT
				is_core = ROOT
			}
			hungngon_area = {
				type = all
				owned_by = ROOT
				is_core = ROOT
			}
			xiyun_area = {
				type = all
				owned_by = ROOT
				is_core = ROOT
			}
			gungi_area = {
				type = all
				owned_by = ROOT
				is_core = ROOT
			}
			luoyip_area = {
				type = all
				owned_by = ROOT
				is_core = ROOT
			}
			iongsim_area = {
				type = all
				owned_by = ROOT
				is_core = ROOT
			}
			hongnguan_area = {
				type = all
				owned_by = ROOT
				is_core = ROOT
			}
		}
		
		effect = {
			wanglam_area = {
				add_nationalism = -5
			}
			hungngon_area = {
				add_nationalism = -5
			}
			xiyun_area = {
				add_nationalism = -5
			}
			gungi_area = {
				add_nationalism = -5
			}
			luoyip_area = {
				add_nationalism = -5
			}
			iongsim_area = {
				add_nationalism = -5
			}
			hongnguan_area = {
				add_nationalism = -5
			}
		}
	}
	
	xia_emancipation_of_yanshen = {
		icon = give_him_back_his_legions
		required_missions = {
			xia_humble_ultimatum
			xia_no_south_kings
			xia_heroes_welcome
		}
		position = 13
		
		provinces_to_highlight = {
			superregion = yanshen_superregion
			OR = {
				NOT = { owned_by = ROOT }
				NOT = { is_core = ROOT }
				NOT = {
					has_terrain = city_terrain
					religion = righteous_path
				}
			}
		}
		
		trigger = {
			yanshen_superregion = {
				type = all
				owned_by = ROOT
				is_core = ROOT
				OR = {
					has_terrain = city_terrain
					religion = righteous_path
				}
			}
		}
		
		effect = {
			yanshen_superregion = {
				add_nationalism = -5
			}
		}
	}
	
	xia_proclaim_xianxia = {
		icon = a_real_roman_empire
		required_missions = {
			xia_mastery_of_school
			xia_emancipation_of_yanshen
			xia_sacred_road
		}
		position = 14
		
		trigger = {
			has_country_modifier = xia_mythical_prowess
			total_development = 1500
			adm_power = 200
		}
		
		effect = {
			add_adm_power = -200
			country_event = { id = one_xia.25 }
		}
	}
	
	xia_tyrants_to_the_west = {
		icon = mission_unite_home_region
		required_missions = {
			xia_proclaim_xianxia
		}
		position = 15
		
		trigger = {
			OR = {
				OR = {
					is_rival = R38
					is_rival = Y51
				}
				OR = {
					R38 = {
						has_opinion_modifier = {
							who = ROOT
							modifier = insulted
						}
					}
					Y51 = {
						has_opinion_modifier = {
							who = ROOT
							modifier = insulted
						}
					}
				}
			}
		}
		
		effect = {
			remove_country_modifier = xia_righteous_liberators_1
			add_country_modifier = {
				name = xia_righteous_liberators_2
				duration = -1
			}
			custom_tooltip = xia_righteous_liberators_2_tooltip
		}
	}
	
	xia_shepherding_the_bom = {
		icon = mission_annex_prome
		required_missions = {
			xia_tyrants_to_the_west
		}
		position = 16
		
		provinces_to_highlight = {
			region = bomdan_region
			OR = {
				NOT = { owned_by = ROOT }
				NOT = { religion = righteous_path }
			}
		}
		
		trigger = {
			num_of_owned_provinces_with	= {
				value = 30
				region = bomdan_region
				religion = righteous_path
			}
		}
		
		effect = {
			add_country_modifier = {
				name = xia_shepherding_bom
				duration = 7300
			}
		}
	}
	
	xia_a_righteous_jungle = {
		icon = mission_conquer_lower_burma_ori
		required_missions = {
			xia_shepherding_the_bom
		}
		position = 17
		
		provinces_to_highlight = {
			region = bomdan_region
			OR = {
				NOT = { owned_by = ROOT }
				NOT = { is_core = ROOT }
				NOT = { religion = righteous_path }
			}
		}
		
		trigger = {
			bomdan_region = {
				type = all
				owned_by = ROOT
				is_core = ROOT
				religion = righteous_path
			}
		}
		
		effect = {
			bomdan_region = {
				add_nationalism = -5
			}
		}
	}
	
	xia_crossing_the_kharunyana = {
		icon = mission_subjugate_saurashtra
		required_missions = {
			xia_a_righteous_jungle
			xia_redeeming_the_wayward
			xia_ennobling_the_yanglam
		}
		position = 18
		
		trigger = {
			adm_power = 100
			dip_power = 100
			mil_power = 100
			has_institution = global_trade
		}
		
		effect = {
			add_adm_power = -100
			add_dip_power = -100
			add_mil_power = -100
			remove_country_modifier = xia_righteous_liberators_2
			add_country_modifier = {
				name = xia_righteous_liberators_3
				duration = -1
			}
			custom_tooltip = xia_righteous_liberators_3_tooltip
		}
	}
	
	xia_overthrow_raja = {
		icon = mission_subdue_the_afghans
		required_missions = {
			xia_crossing_the_kharunyana
		}
		position = 19
		
		provinces_to_highlight = {
			province_id = 4411
			OR = {
				NOT = { owned_by = ROOT }
				NOT = { is_core = ROOT }
			}
		}
		
		trigger = {
			4411 = {
				owned_by = ROOT
				is_core = ROOT
			}
		}
		
		effect = {
			add_prestige = 20
			rahen_superregion = {
				limit = {
					NOT = { is_core = ROOT }
					NOT = { owned_by = ROOT }
					NOT = { is_permanent_claim = ROOT }
				}
				add_permanent_claim = ROOT
			}
		}
	}
	
	xia_adopt_ministries = {
		icon = mission_across_the_vindhyas
		required_missions = {
			xia_overthrow_raja
		}
		position = 20
		
		trigger = {
			adm_power = 250
			government_reform_progress = 200
		}
		
		effect = {
			add_country_modifier = {
				name = xia_adopted_ministries
				duration = -1
			}
			add_adm_power = -250
			change_government_reform_progress = -200	
		}
	}
	
	xia_masters_of_rahen = {
		icon = mission_subjugate_rajputana
		required_missions = {
			xia_adopt_ministries
			xia_emancipating_the_raheni
			xia_integrating_harimari
		}
		position = 21
		
		provinces_to_highlight = {
			superregion = rahen_superregion
			OR = {
				NOT = { owned_by = ROOT }
				NOT = { is_core = ROOT }
			}
		}
		
		trigger = {
			rahen_superregion = {
				type = all
				owned_by = ROOT
				is_core = ROOT
			}
		}
		
		effect = {
			rahen_superregion = {
				add_nationalism = -5
			}
		}
	}
	
	xia_liberators_of_haless = {
		icon = a_real_roman_empire
		required_missions = {
			xia_masters_of_rahen
		}
		position = 22
		
		provinces_to_highlight = {
			OR = {
				superregion = rahen_superregion
				superregion = yanshen_superregion
				region = shuvuushudi_region
				region = odheongu_region
				region = bomdan_region
				region = lupulan_rainforest_region
				region = thidinkai_region
			}
			OR = {
				NOT = { owned_by = ROOT }
				NOT = { is_core = ROOT }
				NOT = { religion = righteous_path }
			}
		}
		
		trigger = {
			rahen_superregion = {
				type = all
				owned_by = ROOT
				is_core = ROOT
				religion = righteous_path
			}
			yanshen_superregion = {
				type = all
				owned_by = ROOT
				is_core = ROOT
				religion = righteous_path
			}
			odheongu_region = {
				type = all
				owned_by = ROOT
				is_core = ROOT
				religion = righteous_path
			}
			shuvuushudi_region = {
				type = all
				owned_by = ROOT
				is_core = ROOT
				religion = righteous_path
			}
			bomdan_region = {
				type = all
				owned_by = ROOT
				is_core = ROOT
				religion = righteous_path
			}
			thidinkai_region = {
				type = all
				owned_by = ROOT
				is_core = ROOT
				religion = righteous_path
			}
			lupulan_rainforest_region = {
				type = all
				owned_by = ROOT
				is_core = ROOT
				religion = righteous_path
			}
			OR = {
				has_country_modifier = xia_made_concessions
				has_country_modifier = xia_cracked_down
				AND = {
					has_country_modifier = xia_righteousness_challenged
					NOT = { exists = Y05 }
				}
			}
		}
		
		effect = {
			add_country_modifier = {
				name = xia_haless_liberators
				duration = -1
			}
			remove_country_modifier = xia_pilgrimages_disrupted
		}
	}
}

xia_onexia_4 = {
	slot = 4
	generic = no
	ai = yes
	has_country_shield = yes
	potential = {
		tag = Y99
	}
	
	xia_guiding_the_path = {
		icon = mission_buddhist_monk_praying
		required_missions = {
			xia_proclaim_one_xia
		}
		position = 6
		
		provinces_to_highlight = {
			owned_by = ROOT
			NOT = { religion = righteous_path }
		}
		
		trigger = {
			num_of_owned_provinces_with	= {
				value = 50
				religion = righteous_path
			}
		}
		
		effect = {
			add_country_modifier = {
				name = xia_guiding_path
				duration = 7300
			}
		}
	}
	
	xia_establish_pilgrimages = {
		icon = mission_conquer_malwa_bah
		required_missions = {
			xia_send_emissaries
			xia_renovate_xiadao
			xia_guiding_the_path
		}
		position = 7
		
		trigger = {
			adm_power = 100
		}
		
		effect = {
			add_adm_power = -100
			add_country_modifier = {
				name = xia_tithe_1
				duration = -1
			}
		}
	}
	
	xia_oust_criminals = {
		icon = mission_great_trading_houses
		required_missions = {
			xia_establish_pilgrimages
		}
		position = 8
		
		provinces_to_highlight = {
			area = sarisung_area
			NOT = { owned_by = ROOT }
		}
		
		trigger = {
			mil_power = 100
			sarisung_area = {
				type = all
				owned_by = ROOT
			}
		}
		
		effect = {
			country_event = { id = one_xia.17 }
		}
	}
	
	xia_upper_cities_fate = {
		icon = mission_great_trading_houses
		required_missions = {
			xia_up_the_yan
		}
		position = 9
		
		provinces_to_highlight = {
			OR = {
				province_id = 4826
				province_id = 4842
				province_id = 4846
			}
			OR = {
				NOT = { owned_by = ROOT }
				NOT = { is_core = ROOT }
			}
		}
		
		trigger = {
			mil_power = 100
			4826 = {
				owned_by = ROOT
				is_core = ROOT
			}
			4842 = {
				owned_by = ROOT
				is_core = ROOT
			}
			4846 = {
				owned_by = ROOT
				is_core = ROOT
			}
		}
		
		effect = {
			country_event = { id = one_xia.18 }
		}
	}
	
	xia_nationalize_incense = {
		icon = mission_dominate_persian_gulf
		required_missions = {
			xia_shrines_and_wayposts
		}
		position = 10
		
		provinces_to_highlight = {
			OR = {
				superregion = yanshen_superregion
				region = xianjie_region
			}
			trade_goods = incense
			OR = {
				NOT = { owned_by = ROOT }
				NOT = { has_production_building_trigger = yes }
			}
		}
		
		trigger = {
			treasury = 500
			num_of_owned_provinces_with	= {
				value = 10
				OR = {
					superregion = yanshen_superregion
					region = xianjie_region
				}
				trade_goods = incense
				has_production_building_trigger = yes
			}
		}
		
		effect = {
			add_treasury = -500
			every_owned_province = {
				limit = {
				    OR = {
			            region = xianjie_region
						superregion = yanshen_superregion
					}
                    trade_goods = incense
				}
				add_province_modifier = {
					name = xia_nationalized_incense_trade
					duration = -1
				}
			}
		}
	}
	
	xia_houses_of_tranquility = {
		icon = mission_mosque
		required_missions = {
			xia_nationalize_incense
		}
		position = 11
		
		provinces_to_highlight = {
			trade_goods = tea
			continent = asia
			OR = {
				AND = {
					NOT = { owned_by = ROOT }
					NOT = {
						ROOT = {
							num_of_owned_provinces_with = {
								value = 20
								trade_goods = tea
							}
						}
					}
				}
				AND = {
					owned_by = ROOT
					NOT = { has_tax_building_trigger = yes }
					NOT = {
						ROOT = {
							num_of_owned_provinces_with = {
								value = 5
								trade_goods = tea
								has_tax_building_trigger = yes
							}
						}
					}
				}
			}
			has_discovered = ROOT
		}
		
		trigger = {
			num_of_owned_provinces_with = {
				value = 20
				trade_goods = tea
			}
			num_of_owned_provinces_with = {
				value = 5
				trade_goods = tea
				has_tax_building_trigger = yes
			}
		}
		
		effect = {
			add_country_modifier = {
				name = xia_houses_tranquility
				duration = 18250
			}
		}
	}
	
	xia_heroes_welcome = {
		icon = mission_kowtow
		required_missions = {
			xia_righteous_liberators
		}
		position = 12
		
		provinces_to_highlight = {
			OR = {
				region = upper_yanshen_region
				region = lower_yanshen_region
				region = north_yanshen_region
			}
			OR = {
				NOT = { owned_by = ROOT }
				NOT = { religion = righteous_path }
			}
		}
		
		trigger = {
			num_of_owned_provinces_with	= {
				OR = {
					region = upper_yanshen_region
					region = lower_yanshen_region
					region = north_yanshen_region
				}
				religion = righteous_path
				value = 75
			}
		}
		
		effect = {
			yanshen_superregion = {
				limit = {
					NOT = { is_core = ROOT }
					NOT = { owned_by = ROOT }
					NOT = { is_permanent_claim = ROOT }
				}
				add_permanent_claim = ROOT
			}
		}
	}
	
	xia_lower_cities_fate = {
		icon = mission_great_trading_houses
		required_missions = {
			xia_heroes_welcome
		}
		position = 13
		
		provinces_to_highlight = {
			OR = {
				province_id = 4859
				province_id = 4868
				province_id = 4871
			}
			OR = {
				NOT = { owned_by = ROOT }
				NOT = { is_core = ROOT }
			}
		}
		
		trigger = {
			mil_power = 100
			4859 = {
				owned_by = ROOT
				is_core = ROOT
			}
			4868 = {
				owned_by = ROOT
				is_core = ROOT
			}
			4871 = {
				owned_by = ROOT
				is_core = ROOT
			}
		}
		
		effect = {
			country_event = { id = one_xia.24 }
		}
	}
	
	xia_brothers_to_the_south = {
		icon = mission_subjugate_rajputana
		required_missions = {
			xia_proclaim_xianxia
		}
		position = 15
		
		trigger = {
			dip_power = 100
		}
		
		effect = {
			add_dip_power = -100
			thidinkai_region = {
				limit = {
					NOT = { is_core = ROOT }
					NOT = { owned_by = ROOT }
					NOT = { is_permanent_claim = ROOT }
				}
				add_permanent_claim = ROOT
			}
		}
	}
	
	xia_liberating_the_kai = {
		icon = mission_subdue_the_afghans
		required_missions = {
			xia_brothers_to_the_south
		}
		position = 16
		
		provinces_to_highlight = {
			region = thidinkai_region
			OR = {
				NOT = { owned_by = ROOT }
				NOT = { is_core = ROOT }
			}
		}
		
		trigger = {
			thidinkai_region = {
				type = all
				owned_by = ROOT
				is_core = ROOT
				religion = righteous_path
			}
		}
		
		effect = {
			thidinkai_region = {
				add_nationalism = -5
			}
			lupulan_rainforest_region = {
				limit = {
					NOT = { is_core = ROOT }
					NOT = { owned_by = ROOT }
					NOT = { is_permanent_claim = ROOT }
				}
				add_permanent_claim = ROOT
			}
		}
	}
	
	xia_ennobling_the_yanglam = {
		icon = mission_indian_soldier_elephant
		required_missions = {
			xia_liberating_the_kai
		}
		position = 17
		
		provinces_to_highlight = {
			region = lupulan_rainforest_region
			OR = {
				NOT = { owned_by = ROOT }
				NOT = { is_core = ROOT }
			}
		}
		
		trigger = {
			lupulan_rainforest_region = {
				type = all
				owned_by = ROOT
				is_core = ROOT
				religion = righteous_path
			}
		}
		
		effect = {
			lupulan_rainforest_region = {
				add_nationalism = -5
			}
		}
	}
	
	xia_emancipating_the_raheni = {
		icon = mission_suppress_the_saophasa
		required_missions = {
			xia_overthrow_raja
		}
		position = 20
		
		provinces_to_highlight = {
			OR = {
				culture_group = upper_raheni
				culture_group = south_raheni
				culture_group = middle_raheni
			}
			OR = {
				NOT = { owned_by = ROOT }
				NOT = { religion = righteous_path }
			}
		}
		
		trigger = {
			num_of_owned_provinces_with	= {
				value = 75
				religion = righteous_path
				OR = {
					culture_group = upper_raheni
					culture_group = south_raheni
					culture_group = middle_raheni
				}
			}
		}
		
		effect = {
			add_country_modifier = {
				name = xia_guiding_rahen
				duration = 18250
			}
		}
	}
}

xia_onexia_5 = {
	slot = 5
	generic = no
	ai = yes
	has_country_shield = yes
	potential = {
		tag = Y99
	}
	
	xia_renovate_xiadao = {
		icon = mission_japanese_fort
		required_missions = {
			xia_proclaim_one_xia
		}
		position = 6
		
		provinces_to_highlight = {
			province_id = 4559
			OR = {
				NOT = { development = 25 }
				NOT = { has_tax_building_trigger = yes }
			}
		}
		
		trigger = {
			4559 = {
				development = 25
				has_tax_building_trigger = yes
			}
		}
		
		effect = {
			jiezhong_area = {
				limit = { owned_by = ROOT }
				add_province_modifier = {
					name = "growth_of_capital"
					duration = 9125 #25 years
				}
			}
			4559 = {
				add_province_modifier = {
					name = xiadao_monastery
					duration = -1
				}
			}
		}
	}
	
	xia_expand_kanhebao = {
		icon = mission_conquer_malwa_bng
		required_missions = {
			xia_renovate_xiadao
		}
		position = 7
		
		provinces_to_highlight = {
			province_id = 4559
			NOT = { fort_level = 4 }
		}
		
		trigger = {
			4559 = {
				fort_level = 4
			}
			adm_power = 50
			dip_power = 50
			mil_power = 50
			years_of_income = 1
		}
		
		effect = {
			4559 = {
				add_base_tax = 2
				add_base_production = 2
				add_base_manpower = 2
			}
			add_adm_power = -50
			add_dip_power = -50
			add_mil_power = -50
			add_years_of_income = -1
		}
	}
	
	xia_righteous_highway = {
		icon = mission_conquer_malwa_bah
		required_missions = {
			xia_establish_pilgrimages
		}
		position = 8
		
		provinces_to_highlight = {
			province_group = golden_highway_xianjie
			OR = {
				NOT = { owned_by = ROOT }
				NOT = { has_province_modifier = golden_highway }
			}
		}
		
		trigger = {
			golden_highway_xianjie = {
				type = all
				owned_by = ROOT
				has_province_modifier = golden_highway
			}
		}
		
		effect = {
			remove_country_modifier = xia_tithe_1
			add_country_modifier = {
				name = xia_tithe_2
				duration = -1
			}
			4559 = {
				add_center_of_trade_level = 1
			}
		}
	}
	
	xia_shrines_and_wayposts = {
		icon = mission_conquer_lower_burma_tau
		required_missions = {
			xia_righteous_highway
		}
		position = 9
		
		provinces_to_highlight = {
			owned_by = ROOT
			has_province_modifier = golden_highway
			NOT = { has_tax_building_trigger = yes }
		}
		
		trigger = {
			num_of_owned_provinces_with	= {
				value = 10
				has_province_modifier = golden_highway
				has_tax_building_trigger = yes
			}
		}
		
		effect = {
			remove_country_modifier = xia_tithe_2
			add_country_modifier = {
				name = xia_tithe_3
				duration = -1
			}
		}
	}
	
	xia_righteous_highway_2 = {
		icon = mission_conquer_central_deccan
		required_missions = {
			xia_shrines_and_wayposts
		}
		position = 10
		
		provinces_to_highlight = {
			province_group = golden_highway_upper_yanshen
			OR = {
				NOT = { owned_by = ROOT }
				NOT = { has_province_modifier = golden_highway }
			}
		}
		
		trigger = {
			golden_highway_upper_yanshen = {
				type = all
				owned_by = ROOT
				has_province_modifier = golden_highway
			}
		}
		
		effect = {
			remove_country_modifier = xia_tithe_3
			add_country_modifier = {
				name = xia_tithe_4
				duration = -1
			}
		}
	}
	
	xia_temple_for_all_righteous = {
		icon = mission_conquer_gujarat_bah
		required_missions = {
			xia_nationalize_incense
			xia_righteous_highway_2
		}
		position = 11
		
		provinces_to_highlight = {
			OR = {
				AND = {
					owned_by = ROOT
					NOT = { religion = righteous_path }
				}
				AND = {
					province_id = 4559
					OR = {
						NOT = { development = 30 }
						NOT = { has_tax_building_trigger = yes }
					}
				}
			}
		}
		
		trigger = {
			num_of_owned_provinces_with	= {
				value = 150
				religion = righteous_path
			}
			4559 = {
				development = 30
				has_tax_building_trigger = yes
			}
			adm_power = 100
			dip_power = 100
			mil_power = 100
		}
		
		effect = {
			remove_country_modifier = xia_tithe_4
			add_country_modifier = {
				name = xia_tithe_5
				duration = -1
			}
			4559 = {
				remove_province_modifier = xiadao_monastery
				add_province_modifier = {
					name = xiadao_district
					duration = -1
				}
			}
		}
	}
	
	xia_righteous_highway_3 = {
		icon = mission_conquer_central_deccan
		required_missions = {
			xia_temple_for_all_righteous
		}
		position = 12
		
		provinces_to_highlight = {
			province_group = golden_highway_lower_yanshen
			OR = {
				NOT = { owned_by = ROOT }
				NOT = { has_province_modifier = golden_highway }
			}
		}
		
		trigger = {
			golden_highway_lower_yanshen = {
				type = all
				owned_by = ROOT
				has_province_modifier = golden_highway
			}
		}
		
		effect = {
			remove_country_modifier = xia_tithe_5
			add_country_modifier = {
				name = xia_tithe_6
				duration = -1
			}
			4559 = {
				add_center_of_trade_level = 1
			}
		}
	}
	
	xia_sacred_road = {
		icon = mission_growth_of_ahmedabad
		required_missions = {
			xia_righteous_highway_3
		}
		position = 13
		
		provinces_to_highlight = {
			owned_by = ROOT
			has_province_modifier = golden_highway
			NOT = { has_tax_building_trigger = yes }
		}
		
		trigger = {
			num_of_owned_provinces_with	= {
				value = 30
				has_province_modifier = golden_highway
				has_tax_building_trigger = yes
			}
		}
		
		effect = {
			remove_country_modifier = xia_tithe_6
			add_country_modifier = {
				name = xia_tithe_7
				duration = -1
			}
		}
	}
	
	xia_hallowed_grounds = {
		icon = mission_growth_of_golcond
		required_missions = {
			xia_proclaim_xianxia
		}
		position = 15
		
		provinces_to_highlight = {
			province_id = 4559
			OR = {
				NOT = { has_building = cathedral }
				NOT = { development = 40 }
			}
		}
		
		trigger = {
			adm_power = 100
			dip_power = 100
			mil_power = 100
			4559 = {
				has_building = cathedral
				development = 40
			}
		}
		
		effect = {
			4559 = {
				remove_province_modifier = xiadao_district
				add_province_modifier = {
					name = xiadao_templecity
					duration = -1
				}
			}
			add_adm_power = -100
			add_dip_power = -100
			add_mil_power = -100
		}
	}
	
	xia_a_virtuous_continent = {
		icon = mission_hands_praying
		required_missions = {
			xia_hallowed_grounds
		}
		position = 16
		
		provinces_to_highlight = {
			continent = asia
			owned_by = ROOT
			NOT = { religion = righteous_path }
		}
		
		trigger = {
			num_of_owned_provinces_with	= {
				value = 400
				religion = righteous_path
				continent = asia
			}
		}
		
		effect = {
			remove_country_modifier = xia_tithe_7
			add_country_modifier = {
				name = xia_tithe_8
				duration = -1
			}
		}
	}
	
	xia_across_rahen = {
		icon = mission_conquer_central_deccan
		required_missions = {
			xia_a_virtuous_continent
			xia_crossing_the_kharunyana
		}
		position = 19
		
		provinces_to_highlight = {
			OR = {
				province_group = golden_highway_rahen_coast
				province_group = golden_highway_dhujat
			}
			OR = {
				NOT = { owned_by = ROOT }
				NOT = { has_province_modifier = golden_highway }
			}
		}
		
		trigger = {
			golden_highway_dhujat = {
				type = all
				owned_by = ROOT
				has_province_modifier = golden_highway
			}
			golden_highway_rahen_coast = {
				type = all
				owned_by = ROOT
				has_province_modifier = golden_highway
			}
		}
		
		effect = {
			remove_country_modifier = xia_tithe_8
			add_country_modifier = {
				name = xia_tithe_9
				duration = -1
			}
		}
	}
}