
setup_vision = {
	if = {
		limit = { exists = yes }
		
		set_country_flag = init_vision
		#Main Cannorian except Escann and Deepwoods
		if = {
			limit = {
				capital_scope = {
					continent = europe
				}
				NOT = {
					capital_scope = {
						superregion = deepwoods_superregion
					}
				}
				NOT = {
					monstrous_culture = yes
				}
			}
			
			#Discover civilized Cannor
			western_cannor_superregion = {
				discover_country = ROOT
			}
			gerudia_superregion = {
				limit = {
					NOT = {
						area = gullmork_area
						area = gifrbygd_area
						area = zeindalr_area
						area = southern_giants_tears_area
						area = vrorenwall_area
						province_id = 988
						province_id = 989
					}
				}
				discover_country = ROOT
			}
			daravans_folly_region = {
				discover_country = ROOT
			}
			dostanor_region = {
				discover_country = ROOT
			}
			1976 = {
				discover_country = ROOT
			}
			1977 = {
				discover_country = ROOT
			}
			1919 = {
				discover_country = ROOT
			}
			4157 = {
				discover_country = ROOT
			}
			4160 = {
				discover_country = ROOT
			}
			4168 = {
				discover_country = ROOT
			}
			4161 = {
				discover_country = ROOT
			}
			4167 = {
				discover_country = ROOT
			}
			4162 = {
				discover_country = ROOT
			}
			6553 = {
				discover_country = ROOT
			}
			4155 = {
				discover_country = ROOT
			}
			6168 = {
				discover_country = ROOT
			}
			1250 = {
				discover_country = ROOT
			}
			1260 = {
				discover_country = ROOT
			}
			4146 = {
				discover_country = ROOT
			}
			
			#discover cannorian seas
			westcoast_region = {
				discover_country = ROOT
			}
			dameshead_sea_region = {
				discover_country = ROOT
			}
			giants_grave_sea_region = {
				discover_country = ROOT
			}
			#bit of reavers sea and bit of frozen thaw
			1281 = {
				discover_country = ROOT
			}
			1320 = {
				discover_country = ROOT
			}
			1476 = {
				discover_country = ROOT
			}
			1321 = {
				discover_country = ROOT
			}
			1324 = {
				discover_country = ROOT
			}
			1290 = {
				discover_country = ROOT
			}
			1436 = {
				discover_country = ROOT
			}
			
			#Discover civilized divenhal
			ourdia_region = {
				discover_country = ROOT
			}
			akan_region = {
				limit = {
					NOT = {
						area = coastal_krahway_area
						area = western_krahway_area
						area = salahad_islands_area
					}
				}
				discover_country = ROOT
			}
			north_salahad_region = {
				discover_country = ROOT
			}
			bahar_region = {
				discover_country = ROOT
			}
			harpy_hills_region = {
				limit = {
					NOT = {
						area = jorkad_lake_area
						area = nephevis_tears_area
					}
				}
				discover_country = ROOT
			}
			bulwar_proper_region = {
				discover_country = ROOT
			}
			far_bulwar_region = {
				limit = {
					NOT = {
						area = garpix_zokka_area
						province_id = 684
					}
				}
				discover_country = ROOT
			}
			4124 = {
				discover_country = ROOT
			}
			1891 = {
				discover_country = ROOT
			}
			1920 = {
				discover_country = ROOT
			}
			1648 = {
				discover_country = ROOT
			}
			571 = {	#Zokka's capital
				undiscover_country = ROOT
			}
			
			divenhal_sea_region = {
				discover_country = ROOT
			}
			
			
			#undiscover kobold underground
			if = {
				limit = {
					NOT = { culture_group = kobold }
				}
				4160 = {
					undiscover_country = ROOT
				}
				185 = {
					undiscover_country = ROOT
				}
				186 = {
					undiscover_country = ROOT
				}
				4646 = {
					undiscover_country = ROOT
				}
				dragondepth_area = {
					undiscover_country = ROOT
				}
			}
			
			#undiscover far isle and lonely isle
			far_isle_area = {
				undiscover_country = ROOT
			}
			lonely_isle_area = {
				undiscover_country = ROOT
			}
			1001 = { #Lonely Isle
				undiscover_country = ROOT
			}
			
			#discover far isle nearby if venail
			if = {
				limit = {
					tag = A21
				}
				1482 = {
					discover_country = ROOT
				}
				1566 = {
					discover_country = ROOT
				}
				1 = {
					discover_country = ROOT
				}
			}
			
		}
		
		#Gerudian Trolls only know Gerudia
		if = {
			limit = {
				capital_scope = {
					superregion = gerudia_superregion
				}
				culture_is_troll = yes
			}
			
			gerudia_superregion = {
				discover_country = ROOT
			}
			giants_grave_sea_region = {
				discover_country = ROOT
			}
			1324 = {
				discover_country = ROOT
			}
			1436 = {
				discover_country = ROOT
			}
			1321 = {
				discover_country = ROOT
			}
			1250 = {
				discover_country = ROOT
			}
			1251 = {
				discover_country = ROOT
			}
			1260 = {
				discover_country = ROOT
			}
			4146 = {
				discover_country = ROOT
			}
			1885 = {
				discover_country = ROOT
			}
		}
		
		#Gerudians undiscover some of farther Bulwar
		if = {
			limit = {
				capital_scope = {
					superregion = gerudia_superregion
				}
			}
			
			far_bulwar_region = {
				undiscover_country = ROOT
			}
			4124 = {
				undiscover_country = ROOT
			}
			vrorenwall_area = {
				discover_country = ROOT
			}

		}
		
		#North Sarhal
		if = {
			limit = {
				OR = {
					capital_scope = {
						superregion = bulwar_superregion
					}
					capital_scope = {
						superregion = salahad_superregion
					}
					capital_scope = {
						region = ourdia_region
					}
				}
				NOT = { tag = R03 } #Davharral
			}
			
			
			#Discover civilized divenhal
			bulwar_superregion = {
				discover_country = ROOT
			}
			salahad_superregion = {
				limit = {
					NOT = {
						area = salahad_islands_area
					}
				}
				discover_country = ROOT
			}
			ourdia_region = {
				discover_country = ROOT
			}
		
			seghdihr_area = {
				discover_country = ROOT
			}
			verkal_gulan_area = {
				discover_country = ROOT
			}
			#bulwar and salahad lakes
			1891 = {
				discover_country = ROOT
			}
			1920 = {
				discover_country = ROOT
			}
			1921 = {
				discover_country = ROOT
			}
			1648 = {
				discover_country = ROOT
			}
			1922 = {
				discover_country = ROOT
			}
			
			#salahadesi deserts
			1793 = {
				discover_country = ROOT
			}
			1794 = {
				discover_country = ROOT
			}
			1795 = {
				discover_country = ROOT
			}
			3190 = {
				discover_country = ROOT
			}
			3191 = {
				discover_country = ROOT
			}
			6109 = {
				discover_country = ROOT
			}
			6108 = {
				discover_country = ROOT
			}
			6106 = {
				discover_country = ROOT
			}
			6105 = {
				discover_country = ROOT
			}
			
			divenhal_sea_region = {
				discover_country = ROOT
			}
			
			
			#discover southern cannorian
			ourdia_region = {
				discover_country = ROOT
			}
			businor_region = {
				discover_country = ROOT
			}
			the_borders_region = {
				discover_country = ROOT
			}
			esmaria_region = {
				discover_country = ROOT
			}
			east_dameshead_region = {
				discover_country = ROOT
			}
			west_dameshead_region = {
				discover_country = ROOT
			}
			lencenor_region = {
				discover_country = ROOT
			}
			small_country_region = {
				discover_country = ROOT
			}
			damescrown_region = {
				discover_country = ROOT
			}
			iochand_area = {
				discover_country = ROOT
			}
			
			dameshead_sea_region = {
				discover_country = ROOT
			}
			westcoast_region = {
				discover_country = ROOT
			}
			4162 = {
				discover_country = ROOT
			}
			6553 = {
				discover_country = ROOT
			}
			4167 = {
				discover_country = ROOT
			}
			4157 = {
				discover_country = ROOT
			}
			1976 = {
				discover_country = ROOT
			}
			1919 = {
				discover_country = ROOT
			}
			
			221 = {	#Gaweton
				undiscover_country = ROOT
			}
			349 = {	#Arbaran
				undiscover_country = ROOT
			}
			4367 = {	#Rahen
				undiscover_country = ROOT
			}
			
		}
		
		#Hobgoblins
		if = {
			limit = {
				OR = {
					technology_group = tech_hobgoblin
					capital_scope = {
						region = jade_mines_region
					}
				}
			}
			rahen_superregion = {
				discover_country = ROOT
			}
			yanshen_superregion = {
				discover_country = ROOT
			}
			south_haless_superregion = {
				limit = { NOT = { province_group = lupulan_rainforest_interior } }
				discover_country = ROOT
			}
			gulf_of_rahen_region = {
				discover_country = ROOT
			}
			jade_mines_region = {
				discover_country = ROOT
			}
			2200 = {
				discover_country = ROOT
			}
			
			#Kharunyana
			4647 = {
				discover_country = ROOT
			}
			4648 = {
				discover_country = ROOT
			}
			4649 = {
				discover_country = ROOT
			}
			
			#Rahen Wastelands
			1788 = {
				discover_country = ROOT
			}
			1786 = {
				discover_country = ROOT
			}
			1896 = {
				discover_country = ROOT
			}
			
			#Yanshen Wastelands
			4650 = {
				discover_country = ROOT
			}
			4651 = {
				discover_country = ROOT
			}
			4652 = {
				discover_country = ROOT
			}
			4653 = {
				discover_country = ROOT
			}
			4654 = {
				discover_country = ROOT
			}
			4655 = {
				discover_country = ROOT
			}
			4656 = {
				discover_country = ROOT
			}
		}
		
		#Far Salahad - undiscover some bits of Cannor, discover Rahen
		if = {
			limit = {
				capital_scope = {
					region = far_salahad_region
				}
			}
			small_country_region = {
				undiscover_country = ROOT
			}
			damescrown_region = {
				undiscover_country = ROOT
			}
			the_borders_region = {
				undiscover_country = ROOT
			}
			esmaria_region = {
				undiscover_country = ROOT
			}
			iochand_area = {
				undiscover_country = ROOT
			}
			1919 = {
				undiscover_country = ROOT
			}
			bulwar_superregion = {
				discover_country = ROOT
			}
			rahen_superregion = {
				discover_country = ROOT
			}
			gulf_of_rahen_region = {
				discover_country = ROOT
			}
			
			#Kharunyana
			4647 = {
				discover_country = ROOT
			}
			4648 = {
				discover_country = ROOT
			}
			4649 = {
				discover_country = ROOT
			}
			
			#Rahen Wastelands
			1788 = {
				discover_country = ROOT
			}
			1786 = {
				discover_country = ROOT
			}
			1896 = {
				discover_country = ROOT
			}
		}
		
		# East Salahad Gnolls on Gulf of Rahen
		if = {
			limit = {
				OR = {
					capital_scope = {
						region = gazraak_region
					}
					tag = F29
				}
			}
			gulf_of_rahen_region = {
				discover_country = ROOT
			}
		}
		
		#Escanni Adventurers and Orcs
		if = {
			limit = {
				OR = {
					capital_scope = {
						superregion = escann_superregion
					}
					capital_scope = {
						region = forlorn_vale_region
					}
				}
				NOT = {
					capital_scope = {
						region = dostanor_region
					}
				}
				NOT = {
					capital_scope = {
						region = ourdia_region
					}
				}
				NOT = {
					capital_scope = {
						region = daravans_folly_region
					}
				}
				NOT = { tag = A32 tag = A77 } # Hide for these guys as well
				# NOT = {
					# capital_scope = {
						# continent = serpentspine
					# }
				# }
			}
			west_castanor_region = {
				discover_country = ROOT
			}
			inner_castanor_region = {
				discover_country = ROOT
			}
			south_castanor_region = {
				discover_country = ROOT
			}
			vrorenwall_area = {
				discover_country = ROOT
			}
			1326 = {
				discover_country = ROOT
			}
		}
		else_if = {
			limit = { OR = { tag = A32 tag = A77 } }
			forlorn_vale_region = {
				discover_country = ROOT
			}
		}
		
		#Orcs and goblins in alenic and north
		if = {
			limit = {
				OR = {
					culture_group = orcish
					culture_group = goblin
				}
				OR = {
					capital_scope = {
						region = alenic_reach_region
					}
					capital_scope = {
						region = gerudian_coast_region
					}
					capital_scope = {
						region = northern_pass_region
					}
				}
				# capital_scope = {
					# area = southern_giants_tears_area
				# }
				# capital_scope = {
					# area = northern_giants_tears_area
				# }
			}
			gerudian_coast_region = {
				discover_country = ROOT
			}
			1885 = {
				discover_country = ROOT
			}
			4146 = {
				discover_country = ROOT
			}
			alenic_reach_region = {
				discover_country = ROOT
			}
			1889 = {
				discover_country = ROOT
			}
			giants_grave_sea_region = {
				discover_country = ROOT
			}
			northern_pass_region = {
				discover_country = ROOT
			}
			1251 = {
				discover_country = ROOT
			}
			1260 = {
				discover_country = ROOT
			}
			1262 = {
				discover_country = ROOT
			}
			6124 = {
				discover_country = ROOT
			}
			west_castanor_region = {
				discover_country = ROOT
			}
			inner_castanor_region = {
				discover_country = ROOT
			}
			197 = {	#Greenscale's capital
				undiscover_country = ROOT
			}
		}
		
		#Serpentspine
		if = {
			limit = {
				capital_scope = {
					continent = serpentspine
				}
			}
			capital_scope = {
				every_neighbor_province = {
					discover_country = ROOT
				}
				every_empty_neighbor_province  = {
					discover_country = ROOT
				}
				
			}
			
			#make verkal gulan and seghdihr discover each other, middle serpentspine(for AI) and bulwar
			if = {
				limit = {
					OR = {
						tag = H78
						tag = F47
					}
				}
				if = {
					limit = { ai = yes }
					middle_dwarovar_region = {
						discover_country = ROOT
					}
				}
				else = {
					4124 = { discover_country = ROOT } #seghdihr
					2914 = { discover_country = ROOT } #verkal gulan
					2915 = { discover_country = ROOT } #hero's vale
				}
				
				#Discover civilized divenhal
				bahar_region = {
					discover_country = ROOT
				}
				harpy_hills_region = {
					discover_country = ROOT
				}
				bulwar_proper_region = {
					discover_country = ROOT
				}
				far_bulwar_region = {
					discover_country = ROOT
				}
				far_salahad_region = {
					discover_country = ROOT
				}
				1891 = {
					discover_country = ROOT
				}
				1920 = {
					discover_country = ROOT
				}
				1921 = {
					discover_country = ROOT
				}
				1922 = {
					discover_country = ROOT
				}
				
				#salahadesi deserts
				1795 = {
					discover_country = ROOT
				}
				3190 = {
					discover_country = ROOT
				}
				3191 = {
					discover_country = ROOT
				}
				
				#divenhal sea
				brasanni_sea_area = { 
					discover_country = ROOT
				}
				gulf_of_glass_area = { 
					discover_country = ROOT
				}
				east_diven_area = { 
					discover_country = ROOT
				}
				sea_of_follies_area = { 
					discover_country = ROOT
				}
				
				4367 = {	#Rahen
					undiscover_country = ROOT
				}
			}
		}
		
		
		#Kobolds dragon coast
		if = {
			limit = {
				OR = {
					capital_scope = {
						region = dragon_coast_region
					}
					capital_scope = {
						region = alenic_frontier_region
					}
				}
				culture_group = kobold
			}
			
			dragon_coast_region = {
				discover_country = ROOT
			}
			1001 = { #Hide Lonely Isle
				undiscover_country = ROOT
			}
			bay_of_dragons_area = {
				discover_country = ROOT
			}
			1281 = {
				discover_country = ROOT
			}
			1320 = {
				discover_country = ROOT
			}
			1321 = {
				discover_country = ROOT
			}
			1476 = {
				discover_country = ROOT
			}
			1287 = {
				discover_country = ROOT
			}
			4160 = {
				discover_country = ROOT
			}
			6168 = {
				discover_country = ROOT
			}
			small_country_region = {
				discover_country = ROOT
			}
			
			westmoor_proper_area = {
				discover_country = ROOT
			}
			moorhills_area = {
				discover_country = ROOT
			}
			beronmoor_area = {
				discover_country = ROOT
			}
			coddorran_heights_area = {
				discover_country = ROOT
			}
			storm_isles_area = {
				discover_country = ROOT
			}
			mawriver_area = {
				discover_country = ROOT
			}
			westmounts_area = {
				discover_country = ROOT
			}
			
		}
		
		
		#Hill Gnolls
		if = {
			limit = { tag = A49 }
			businor_region = {
				discover_country = ROOT
			}
			4167 = {
				discover_country = ROOT
			}
			4162 = {
				discover_country = ROOT
			}
			6553 = {
				discover_country = ROOT
			}
			east_dameshead_region = {
				discover_country = ROOT
			}
			the_borders_region = {
				discover_country = ROOT
			}
			daravans_folly_region = {
				discover_country = ROOT
			}
			ourdia_region = {
				discover_country = ROOT
			}
			sea_of_stone_area = {
				discover_country = ROOT
			}
			sea_of_follies_area = {
				discover_country = ROOT
			}
			damesneck_sea_area = {
				discover_country = ROOT
			}
			1282 = {
				discover_country = ROOT
			}
			1280 = {
				discover_country = ROOT
			}
			1975 = {
				discover_country = ROOT
			}
		}
		
		#Rahen
		if = {
			limit = {
				OR = {
					capital_scope = {
						superregion = rahen_superregion
					}
					tag = R03 #Davharral
				}
			}
			far_salahad_region = {
				discover_country = ROOT
			}
			far_bulwar_region = {
				discover_country = ROOT
			}
			rahen_superregion = {
				discover_country = ROOT
			}
			yanshen_superregion = {
				discover_country = ROOT
			}
			south_haless_superregion = {
				limit = { NOT = { province_group = lupulan_rainforest_interior } }
				discover_country = ROOT
			}
			gulf_of_rahen_region = {
				discover_country = ROOT
			}
			ringlet_sea_region = {
				discover_country = ROOT
			}
			northeast_haless_coast_region = {
				discover_country = ROOT
			}
			
			#Kharunyana
			4647 = {
				discover_country = ROOT
			}
			4648 = {
				discover_country = ROOT
			}
			4649 = {
				discover_country = ROOT
			}
			
			#Rahen Wastelands
			1788 = {
				discover_country = ROOT
			}
			1786 = {
				discover_country = ROOT
			}
			1896 = {
				discover_country = ROOT
			}
			
			#Haless Wastelands
			4170 = {
				discover_country = ROOT
			}
			2334 = {
				discover_country = ROOT
			}
			
			#Yanshen Lakes
			1900 = {
				discover_country = ROOT
			}
			1899 = {
				discover_country = ROOT
			}
			1897 = {
				discover_country = ROOT
			}
			
			#Yanshen Wastelands
			4650 = {
				discover_country = ROOT
			}
			4651 = {
				discover_country = ROOT
			}
			4652 = {
				discover_country = ROOT
			}
			4653 = {
				discover_country = ROOT
			}
			4654 = {
				discover_country = ROOT
			}
			4655 = {
				discover_country = ROOT
			}
			4656 = {
				discover_country = ROOT
			}
			
			#salahad lake
			1922 = {
				discover_country = ROOT
			}
			
			#salahadesi deserts
			1795 = {
				discover_country = ROOT
			}
			3190 = {
				discover_country = ROOT
			}
			3191 = {
				discover_country = ROOT
			}
		}
		
		#Yanshen
		if = {
			limit = {
				OR = {
					capital_scope = {
						OR = {
							superregion = yanshen_superregion
						}
					}
				}
			}
			rahen_superregion = {
				discover_country = ROOT
			}
			yanshen_superregion = {
				discover_country = ROOT
			}
			south_haless_superregion = {
				limit = { NOT = { province_group = lupulan_rainforest_interior } }
				discover_country = ROOT
			}
			shuvuushudi_region = {
				discover_country = ROOT
			}
			odheongu_region = {
				discover_country = ROOT
			}
			gulf_of_rahen_region = {
				discover_country = ROOT
			}
			ringlet_sea_region = {
				discover_country = ROOT
			}
			northeast_haless_coast_region = {
				discover_country = ROOT
			}
			
			#Kharunyana
			4647 = {
				discover_country = ROOT
			}
			4648 = {
				discover_country = ROOT
			}
			4649 = {
				discover_country = ROOT
			}
			
			#Rahen Wastelands
			1788 = {
				discover_country = ROOT
			}
			1786 = {
				discover_country = ROOT
			}
			1896 = {
				discover_country = ROOT
			}
			
			#Haless Wastelands
			4170 = {
				discover_country = ROOT
			}
			2334 = {
				discover_country = ROOT
			}
			
			#Yanshen Lakes
			1900 = {
				discover_country = ROOT
			}
			1899 = {
				discover_country = ROOT
			}
			1902 = {
				discover_country = ROOT
			}
			1897 = {
				discover_country = ROOT
			}
			
			#Yanshen Wastelands
			4650 = {
				discover_country = ROOT
			}
			4651 = {
				discover_country = ROOT
			}
			4652 = {
				discover_country = ROOT
			}
			4653 = {
				discover_country = ROOT
			}
			4654 = {
				discover_country = ROOT
			}
			4655 = {
				discover_country = ROOT
			}
			4656 = {
				discover_country = ROOT
			}
		}
		
		#North Haless
		if = {
			limit = {
				OR = {
					capital_scope = {
						OR = {
							region = shuvuushudi_region
							region = odheongu_region
						}
					}
				}
			}
			yanshen_superregion = {
				discover_country = ROOT
			}
			shuvuushudi_region = {
				discover_country = ROOT
			}
			odheongu_region = {
				discover_country = ROOT
			}
			northeast_haless_coast_region = {
				discover_country = ROOT
			}
			
			#Yanshen Lakes
			1900 = {
				discover_country = ROOT
			}
			1899 = {
				discover_country = ROOT
			}
			1902 = {
				discover_country = ROOT
			}
			1897 = {
				discover_country = ROOT
			}
			
			#Yanshen Wastelands
			4650 = {
				discover_country = ROOT
			}
			4651 = {
				discover_country = ROOT
			}
			4652 = {
				discover_country = ROOT
			}
			4653 = {
				discover_country = ROOT
			}
			4654 = {
				discover_country = ROOT
			}
			4655 = {
				discover_country = ROOT
			}
			4656 = {
				discover_country = ROOT
			}
		}
		
		#South Haless
		if = {
			limit = {
				OR = {
					capital_scope = {
						OR = {
							superregion = south_haless_superregion
						}
						NOT = { region = lupulan_rainforest_region }
					}
				}
			}
			rahen_superregion = {
				discover_country = ROOT
			}
			yanshen_superregion = {
				discover_country = ROOT
			}
			south_haless_superregion = {
				limit = { NOT = { province_group = lupulan_rainforest_interior } }
				discover_country = ROOT
			}
			gulf_of_rahen_region = {
				discover_country = ROOT
			}
			ringlet_sea_region = {
				discover_country = ROOT
			}
			northeast_haless_coast_region = {
				discover_country = ROOT
			}
			
			#Kharunyana
			4647 = {
				discover_country = ROOT
			}
			4648 = {
				discover_country = ROOT
			}
			4649 = {
				discover_country = ROOT
			}
			
			#Rahen Wastelands
			1788 = {
				discover_country = ROOT
			}
			1786 = {
				discover_country = ROOT
			}
			1896 = {
				discover_country = ROOT
			}
			
			#Haless Wastelands
			4170 = {
				discover_country = ROOT
			}
			2334 = {
				discover_country = ROOT
			}
			
			#Yanshen Lakes
			1900 = {
				discover_country = ROOT
			}
			1899 = {
				discover_country = ROOT
			}
			1897 = {
				discover_country = ROOT
			}
			
			#Yanshen Wastelands
			4650 = {
				discover_country = ROOT
			}
			4651 = {
				discover_country = ROOT
			}
			4652 = {
				discover_country = ROOT
			}
			4653 = {
				discover_country = ROOT
			}
			4654 = {
				discover_country = ROOT
			}
			4655 = {
				discover_country = ROOT
			}
			4656 = {
				discover_country = ROOT
			}
		}
		
		#Lupulan Rainforest
		if = {
			limit = {
				OR = {
					capital_scope = {
						OR = {
							region = lupulan_rainforest_region
						}
					}
				}
			}
			rahen_superregion = {
				discover_country = ROOT
			}
			yanshen_superregion = {
				discover_country = ROOT
			}
			south_haless_superregion = {
				discover_country = ROOT
			}
			gulf_of_rahen_region = {
				discover_country = ROOT
			}
			ringlet_sea_region = {
				discover_country = ROOT
			}
			northeast_haless_coast_region = {
				discover_country = ROOT
			}
			
			#Kharunyana
			4647 = {
				discover_country = ROOT
			}
			4648 = {
				discover_country = ROOT
			}
			4649 = {
				discover_country = ROOT
			}
			
			#Rahen Wastelands
			1788 = {
				discover_country = ROOT
			}
			1786 = {
				discover_country = ROOT
			}
			1896 = {
				discover_country = ROOT
			}
			
			#Haless Wastelands
			4170 = {
				discover_country = ROOT
			}
			2334 = {
				discover_country = ROOT
			}
			
			#South Haless Lakes
			1898 = {
				discover_country = ROOT
			}
			
			#Yanshen Lakes
			1900 = {
				discover_country = ROOT
			}
			1899 = {
				discover_country = ROOT
			}
			1897 = {
				discover_country = ROOT
			}
			
			#Yanshen Wastelands
			4650 = {
				discover_country = ROOT
			}
			4651 = {
				discover_country = ROOT
			}
			4652 = {
				discover_country = ROOT
			}
			4653 = {
				discover_country = ROOT
			}
			4654 = {
				discover_country = ROOT
			}
			4655 = {
				discover_country = ROOT
			}
			4656 = {
				discover_country = ROOT
			}
		}
		
		#taychend and kheionai
		if = {
			limit = {
				
				OR = {
					capital_scope = {
						superregion = greater_taychend_superregion
					}
					capital_scope = {
						superregion = kheionai_superregion
					}
				}
			}
			if = {
				limit = {
					NOT = {
						culture_group = eltibhari_ruinborn_elf
						culture_group = devandi_ruinborn_elf
					}
				}
				greater_taychend_superregion = {
					discover_country = ROOT
				}
				kheionai_superregion = {
					discover_country = ROOT
				}
				cleaved_sea_area = {
					discover_country = ROOT
				}
				sea_of_ameion_area = {
					discover_country = ROOT
				}
				radiant_sea_area = {
					discover_country = ROOT
				}
				1719 = {
					discover_country = ROOT
				}
				2512 = {
					discover_country = ROOT
				}
				2328 = {
					discover_country = ROOT
				}
				2327 = {
					discover_country = ROOT
				}
				2326 = {
					discover_country = ROOT
				}
				#discover mountains and lakes
				2936 = {
					discover_country = ROOT
				}
				1663 = {
					discover_country = ROOT
				}
				1779 = {
					discover_country = ROOT
				}
				
				1785 = {
					discover_country = ROOT
				}
				1791 = {
					discover_country = ROOT
				}
				1662 = {
					discover_country = ROOT
				}
				6121 = {
					discover_country = ROOT
				}
				6122 = {
					discover_country = ROOT
				}
				6123 = {
					discover_country = ROOT
				}
				
				
				#discover some kaydhano
				1711 = {
					discover_country = ROOT
				}
				1549 = {
					discover_country = ROOT
				}
				1550 = {
					discover_country = ROOT
				}
				
				if = {	#Larankar undiscovers Kheionai
					limit = {
						primary_culture = larankarha
					}
				
					cleaved_sea_coast_region = {
						undiscover_country = ROOT
					}
					alecand_region = {
						undiscover_country = ROOT
					}
					devand_region = {
						limit = {
							island = yes
						}
						undiscover_country = ROOT
					}
					2936 = {
						undiscover_country = ROOT
					}
				}
			}
			else_if = {
				limit = {
					culture_group = devandi_ruinborn_elf
				}
				mteibas_valley_region = {
					discover_country = ROOT
				}
				devand_region = {
					discover_country = ROOT
				}
				andic_reach_region = {
					discover_country = ROOT
				}
				chendhya_region = {
					discover_country = ROOT
				}
				rantiandi_area = {
					discover_country = ROOT
				}
				varanya_sangaman_area = {
					discover_country = ROOT
				}
				2525 = {
					discover_country = ROOT
				}
				2524 = {
					discover_country = ROOT
				}
				
				#Seas
				1546 = {
					discover_country = ROOT
				}
				1731 = {
					discover_country = ROOT
				}
				1739 = {
					discover_country = ROOT
				}
				1729 = {
					discover_country = ROOT
				}
				1713 = {
					discover_country = ROOT
				}
				1712 = {
					discover_country = ROOT
				}
				
				#Lakes and Wasteland
				1663 = {
					discover_country = ROOT
				}
				1662 = {
					discover_country = ROOT
				}
				1779 = {
					discover_country = ROOT
				}
				1785 = {
					discover_country = ROOT
				}
				
				#Undiscover some islands
				2681 = {
					undiscover_country = ROOT
				}
				2717 = {
					undiscover_country = ROOT
				}
				2718 = {
					undiscover_country = ROOT
				}
				2719 = {
					undiscover_country = ROOT
				}
				2722 = {
					undiscover_country = ROOT
				}
				2750 = {
					undiscover_country = ROOT
				}
				2774 = {
					undiscover_country = ROOT
				}
			}
			else_if = {
				limit = {
					culture_group = eltibhari_ruinborn_elf
				}
				alecand_region = {
					discover_country = ROOT
				}
				devand_region = {
					limit = {
						island = yes
					}
					discover_country = ROOT
				}
				
				#Seas
				cleaved_sea_area = {
					discover_country = ROOT
				}
				1711 = {
					discover_country = ROOT
				}
				
				#Wasteland
				2936 = {
					discover_country = ROOT
				}
				
				#Undiscover
				1729 = {
					undiscover_country = ROOT
				}
				2724 = {
					undiscover_country = ROOT
				}
				2716 = {
					undiscover_country = ROOT
				}
			}
		}
		
		#eordand
		if = {
			limit = {
				capital_scope = {
					superregion = eordand_superregion
				}
			}
			eordand_superregion = {
				limit = {
					NOT = {
						OR = {
							region = domandrod_region
							province_id = 6558
						}
					}
				}
				discover_country = ROOT
			}
			1805 = {
				discover_country = ROOT
			}
			1587 = {
				discover_country = ROOT
			}
			1693 = {
				discover_country = ROOT
			}
			1695 = {
				discover_country = ROOT
			}
			1690 = {
				discover_country = ROOT
			}
			1391 = {
				discover_country = ROOT
			}
			1689 = {
				discover_country = ROOT
			}
			1683 = {
				discover_country = ROOT
			}
			1396 = {
				discover_country = ROOT
			}
			1685 = {
				discover_country = ROOT
			}
			1714 = {
				discover_country = ROOT
			}
			1707 = {
				discover_country = ROOT
			}
			1696 = {
				discover_country = ROOT
			}
			1692 = {
				discover_country = ROOT
			}
		}
		
		#ynn
		if = {
			limit = {
				capital_scope = {
					superregion = ynn_superregion
				}
			}
			sarda_region = {
				discover_country = ROOT
			}
			dolindha_region = {
				discover_country = ROOT
			}
			rzenta_region = {
				discover_country = ROOT
			}
			pomvasonn_area = {
				discover_country = ROOT
			}
			6501 = {	#Ynn River
				discover_country = ROOT
			}
			6547 = {	#Ynn River
				discover_country = ROOT
			}
			6548 = {	#Ynn River
				discover_country = ROOT
			}
			6549 = {	#Ynn River
				discover_country = ROOT
			}
			6550 = {	#Ynn River
				discover_country = ROOT
			}
			6551 = {	#Ynn River
				discover_country = ROOT
			}
			6552 = {	#Ynn River
				discover_country = ROOT
			}
		}
		
		#noruin
		if = {
			limit = {
				OR = {
					capital_scope = {
						region = bloodgroves_region
					}
					capital_scope = {
						region = trollsbay_region
					}
					capital_scope = {
						region = reapers_coast_region
					}
				}
			}
			bloodgroves_region = {
				discover_country = ROOT
			}
			trollsbay_region = {
				discover_country = ROOT
			}
			reapers_coast_region = {
				discover_country = ROOT
			}
			silsenald_isles_area = {
				discover_country = ROOT
			}
			great_tussock_area = {
				discover_country = ROOT
			}
			saamirses_area = {
				discover_country = ROOT
			}
			isles_of_transition_area = {
				discover_country = ROOT
			}
			unstill_waters_area = {
				discover_country = ROOT
			}
			#Sea tiles
			trollsbay_coast_area = {
				discover_country = ROOT
			}
			reapers_coast_area = {
				discover_country = ROOT
			}
			1531 = {
				discover_country = ROOT
			}
			1583 = {
				discover_country = ROOT
			}
			1500 = {
				discover_country = ROOT
			}
			1674 = {
				discover_country = ROOT
			}
		}
		
		#haraf
		if = {
			limit = {
				capital_scope = {
					region = haraf_region
				}
			}
			haraf_region = {
				discover_country = ROOT
			}
			guardian_islands_area = {
				discover_country = ROOT
			}
			2155 = {
				discover_country = ROOT
			}
			#Sea tiles
			1557 = {
				discover_country = ROOT
			}
			1559 = {
				discover_country = ROOT
			}
			1560 = {
				discover_country = ROOT
			}
			1561 = {
				discover_country = ROOT
			}
			1720 = {
				discover_country = ROOT
			}
			1682 = {
				discover_country = ROOT
			}
			1445 = {
				discover_country = ROOT
			}
			1678 = {
				discover_country = ROOT
			}
			#Wasteland
			1811 = {
				discover_country = ROOT
			}
		}
		
		#amadia
		if = {
			limit = {
				capital_scope = {
					region = amadia_region
				}
			}
			amadia_region = {
				discover_country = ROOT
			}
			#Sea tiles
			1552 = {
				discover_country = ROOT
			}
			1553 = {
				discover_country = ROOT
			}
			1555 = {
				discover_country = ROOT
			}
			1556 = {
				discover_country = ROOT
			}
			#Wasteland
			2740 = {
				discover_country = ROOT
			}
			2251 = {
				discover_country = ROOT
			}
			#Lakes
			1657 = {
				discover_country = ROOT
			}
			1660 = {
				discover_country = ROOT
			}
		}
		
		#leechdens
		if = {
			limit = {
				capital_scope = {
					region = leechdens_region
				}
			}
			leechdens_region = {
				discover_country = ROOT
			}
			#Sea tiles
			leechdens_area = {
				discover_country = ROOT
			}
			#Lakes
			1916 = {
				discover_country = ROOT
			}
			1914 = {
				discover_country = ROOT
			}
			1917 = {
				discover_country = ROOT
			}
			1918 = {
				discover_country = ROOT
			}
			1661 = {
				discover_country = ROOT
			}
			1913 = {
				discover_country = ROOT
			}
			1912 = {
				discover_country = ROOT
			}
			1659 = {
				discover_country = ROOT
			}
			1915 = {
				discover_country = ROOT
			}
		}
		
		#make deepwoods unknown for all except deepwood, deepwood only knows itself
		if = {
			limit = {
				capital_scope = {
					superregion = deepwoods_superregion
				}
			}
			deepwoods_superregion = {
				discover_country = ROOT
			}
			1782 = {
				discover_country = ROOT
			}
			1261 = {
				discover_country = ROOT
			}
		}
		
		if = {
			limit = {
				capital_scope = {
					superregion = forbidden_lands_superregion
				}
			}
			forbidden_lands_superregion = {
				discover_country = ROOT
			}
			1327 = {
				discover_country = ROOT
			}
			northern_sea_region = {
				discover_country = ROOT
			}
			1784 = {
				discover_country = ROOT
			}
		}
	}
	#Discover allies capitals
	every_ally = {
		capital_scope = {
			discover_country = ROOT
		}
	}
	# Resets prestige from being the first in the tech group to discover a province
	add_prestige = -200
	add_prestige = 100
}

setup_ai_attitude = {
	# Set everyone's attitude to neutral towards one another
	every_known_country = {
		ROOT = {
			set_ai_attitude = {
				attitude = attitude_neutral
				who = PREV
				locked = no
			}
		}
	}
}

setup_caste_estates = {
	if = {
		limit = { exists = yes has_country_flag = has_caste_estates }

		############Calculate percentage of harimari################
		# calculate what proportion of dev is harimari cultured
		set_variable = {
			which = nbHarimariMajority
			value = 0
		}
		set_variable = {
			which = nbHarimariMajorityCounter
			value = 0
		}
		every_owned_province = {
			if = { #Harimari Dev
				limit = { 
					OR = {
						culture = east_harimari
						culture = royal_harimari
					}
					is_core = ROOT 
					is_state = yes 
				}
				ROOT = {
					export_to_variable = {
						variable_name = nbHarimariMajorityCounter
						value = development
						who = PREV
					}
					change_variable = {
						which = nbHarimariMajority
						which = nbHarimariMajorityCounter
					}
				}
			}
		}

		### Set Comparison Variables
		set_variable = {
			which = totalDev
			value = 0
		}
		set_variable = {
			which = totalDevCounter
			value = 0
		}

		every_owned_province = {
			if = { #Total Dev
				limit = {
					AND = {
						is_core = ROOT
						is_state = yes
					}
				}
				ROOT = {										#ROOT = Country
					export_to_variable = {
						variable_name = totalDevCounter
						value = development						# Dev of Province
						who = PREV								# PREV = Province
					}
					change_variable = {
						which = totalDev
						which = totalDevCounter
					}
				}
			}
		}

		#############################
		##    Calculate %Dev of harimari Race
		#############################
		divide_variable = {
			which = nbHarimariMajority
			which = totalDev
		}

		############################################################

		################Populate Upper castes.######################
		##Add Harimari
		if = { 
			limit = {
				OR = {
					primary_culture = royal_harimari
					ruler_is_harimari = yes		#Harimari in charge
					overlord = { has_reform = raja_reform } #Overlord part of Raj
					has_reform = raja_reform	#Part of the Raj
				}
			}
			set_country_flag = harimari_in_uppercastes
		}
		else = {
			set_country_flag = human_in_uppercastes # If there are no Harimari, humans rule
		}
		##Add Humans
		if = {
			limit = {
				culture_is_human = yes
				ruler_is_human = yes
			}
			set_country_flag = human_in_uppercastes
		}
		else_if = {
			limit = {
				OR = {
					tag = R10 # Sarvanan
					tag = R12 # Ghatarsen
					tag = R34 # Kamapar
				}
			}
			set_country_flag = human_in_uppercastes
		}
		#############################################################
		
		
		################Populate Middle castes.######################
		##Add Harimari if they inhabit 50% of the dev		
		set_variable = {
			which = PercentDevMiddleCastes
			value = 0.5			#How much Dev does the race need to have for the options to appears. 1 = 100%
		}
		if = {
			limit = {
				OR = {
					NOT = {has_country_flag = harimari_in_uppercastes} #If not in uppercastes, harimari are surely in middlecastes
					check_variable = { #If >50% of pop harimari, add to caste
						which = nbHarimariMajority
						which = PercentDevMiddleCastes #set to 50% for Middle castes
					}
				}
			}
			set_country_flag = harimari_in_middlecastes
		}

		#Add Humans
		set_country_flag = human_in_middlecastes	#Always Humans
		#############################################################
		
		
		################Populate Lower castes.#######################
		##Add Harimari if they inhabit 75% of the dev		
		set_variable = {
			which = PercentDevLowerCastes
			value = 0.75			#How much Dev does the race need to have for the options to appears. 1 = 100%
		}
		if = {
			limit = {
				OR = {
					NOT = {has_country_flag = harimari_in_uppercastes} #If not in uppercastes, harimari are surely in middlecastes
					check_variable = { #If >75% of pop harimari, add to caste
						which = nbHarimariMajority
						which = PercentDevLowerCastes #set to 75% for Lower castes
					}
				}
			}
			set_country_flag = harimari_in_lowercastes
		}
		
		#Add Humans
		set_country_flag = human_in_lowercastes	#Always Humans
		#############################################################

		
		############Initialize Caste Fluidity################
		set_variable = { which = casteFluidityVar value = 15 }
	}
}